<?xml version="1.0" standalone="no"?>
<!DOCTYPE svg PUBLIC "-//W3C//DTD SVG 20010904//EN"
 "http://www.w3.org/TR/2001/REC-SVG-20010904/DTD/svg10.dtd">
<svg version="1.0" xmlns="http://www.w3.org/2000/svg"
 width="96.000000pt" height="96.000000pt" viewBox="0 0 96.000000 96.000000"
 preserveAspectRatio="xMidYMid meet">
<metadata>
Created by potrace 1.16, written by Peter Selinger 2001-2019
</metadata>
<g transform="translate(0.000000,96.000000) scale(0.100000,-0.100000)"
fill="#000000" stroke="none">
<path d="M189 764 c-86 -54 -95 -200 -15 -256 5 -3 -6 -13 -26 -21 -41 -17
-101 -74 -123 -118 -9 -16 -19 -52 -22 -80 l-6 -49 35 0 c34 0 36 2 41 41 6
43 42 97 91 133 22 17 42 21 106 21 73 0 81 -2 117 -31 l38 -31 -3 -84 c-4
-98 15 -155 71 -211 48 -49 102 -71 179 -76 87 -5 154 17 208 69 57 55 80 109
80 189 0 113 -36 186 -116 237 -41 26 -42 28 -26 46 13 14 17 37 17 89 0 69 0
70 -42 109 -39 36 -47 39 -99 39 -64 0 -100 -17 -132 -64 -29 -42 -31 -133 -3
-167 l18 -23 -44 -29 c-24 -16 -48 -38 -54 -49 -10 -18 -11 -18 -42 8 -17 14
-41 30 -54 35 l-24 9 26 27 c29 32 40 77 32 136 -4 32 -15 51 -46 79 -37 35
-45 38 -98 38 -35 0 -68 -7 -84 -16z m138 -76 c51 -48 15 -138 -56 -138 -47 0
-81 32 -81 79 0 72 84 109 137 59z m420 0 c51 -48 15 -138 -56 -138 -47 0 -81
32 -81 79 0 72 84 109 137 59z m60 -254 c124 -100 108 -275 -31 -346 -128 -66
-286 34 -286 181 0 62 10 89 52 136 45 52 80 66 160 62 57 -2 72 -7 105 -33z"/>
<path d="M660 360 l0 -60 -60 0 -60 0 0 -30 0 -30 60 0 60 0 0 -60 0 -60 30 0
30 0 0 60 0 60 60 0 60 0 0 30 0 30 -60 0 -60 0 0 60 0 60 -30 0 -30 0 0 -60z"/>
</g>
</svg>
