<?xml version="1.0" standalone="no"?>
<!DOCTYPE svg PUBLIC "-//W3C//DTD SVG 20010904//EN"
 "http://www.w3.org/TR/2001/REC-SVG-20010904/DTD/svg10.dtd">
<svg version="1.0" xmlns="http://www.w3.org/2000/svg"
 width="96.000000pt" height="96.000000pt" viewBox="0 0 96.000000 96.000000"
 preserveAspectRatio="xMidYMid meet">
<metadata>
Created by potrace 1.16, written by Peter Selinger 2001-2019
</metadata>
<g transform="translate(0.000000,96.000000) scale(0.100000,-0.100000)"
fill="#ffffff" stroke="none">
<path d="M360 708 c-102 -105 -185 -194 -185 -198 0 -4 85 -95 189 -200 196
-200 201 -203 230 -157 9 14 -17 45 -159 187 l-170 170 168 168 c92 92 167
172 167 178 0 13 -33 44 -46 43 -5 0 -92 -86 -194 -191z"/>
</g>
</svg>
