<?xml version="1.0" standalone="no"?>
<!DOCTYPE svg PUBLIC "-//W3C//DTD SVG 20010904//EN"
 "http://www.w3.org/TR/2001/REC-SVG-20010904/DTD/svg10.dtd">
<svg version="1.0" xmlns="http://www.w3.org/2000/svg"
 width="96.000000pt" height="96.000000pt" viewBox="0 0 96.000000 96.000000"
 preserveAspectRatio="xMidYMid meet">
<metadata>
Created by potrace 1.16, written by Peter Selinger 2001-2019
</metadata>
<g transform="translate(0.000000,96.000000) scale(0.100000,-0.100000)"
fill="#000000" stroke="none">
<path d="M420 653 l0 -247 -68 67 -68 68 -24 -26 -24 -26 107 -107 107 -107
107 107 107 107 -24 26 -24 26 -68 -68 -68 -67 0 247 0 247 -30 0 -30 0 0
-247z"/>
<path d="M60 265 c0 -88 2 -98 25 -120 l24 -25 341 0 341 0 24 25 c23 22 25
32 25 120 l0 95 -30 0 -30 0 0 -74 c0 -54 -4 -79 -16 -90 -13 -14 -56 -16
-314 -16 -258 0 -301 2 -314 16 -12 11 -16 36 -16 90 l0 74 -30 0 -30 0 0 -95z"/>
</g>
</svg>
