<?xml version="1.0" standalone="no"?>
<!DOCTYPE svg PUBLIC "-//W3C//DTD SVG 20010904//EN"
 "http://www.w3.org/TR/2001/REC-SVG-20010904/DTD/svg10.dtd">
<svg version="1.0" xmlns="http://www.w3.org/2000/svg"
 width="96.000000pt" height="96.000000pt" viewBox="0 0 96.000000 96.000000"
 preserveAspectRatio="xMidYMid meet">
<metadata>
Created by potrace 1.16, written by Peter Selinger 2001-2019
</metadata>
<g transform="translate(0.000000,96.000000) scale(0.100000,-0.100000)"
fill="#000000" stroke="none">
<path d="M320 882 c-68 -26 -101 -46 -147 -92 -36 -34 -83 -105 -83 -125 0 -3
18 -5 40 -5 22 0 40 5 40 10 0 26 94 109 152 135 54 24 69 27 142 23 132 -7
226 -71 282 -192 37 -78 34 -183 -6 -264 -85 -168 -280 -233 -441 -145 -47 25
-129 104 -129 124 0 5 -18 9 -40 9 -22 0 -40 -2 -40 -5 0 -3 9 -22 19 -43 27
-52 106 -125 171 -158 51 -27 63 -29 170 -29 107 0 119 2 171 29 78 39 146
108 183 186 29 61 31 73 31 175 0 102 -2 114 -29 167 -37 73 -112 148 -184
184 -49 24 -71 28 -157 31 -76 2 -111 -2 -145 -15z"/>
<path d="M480 602 l0 -62 -210 0 -210 0 0 -30 0 -30 210 0 210 0 0 -62 0 -63
77 78 78 77 -78 77 -77 78 0 -63z"/>
</g>
</svg>
