<?xml version="1.0" standalone="no"?>
<!DOCTYPE svg PUBLIC "-//W3C//DTD SVG 20010904//EN"
 "http://www.w3.org/TR/2001/REC-SVG-20010904/DTD/svg10.dtd">
<svg version="1.0" xmlns="http://www.w3.org/2000/svg"
 width="96.000000pt" height="96.000000pt" viewBox="0 0 96.000000 96.000000"
 preserveAspectRatio="xMidYMid meet">
<metadata>
Created by potrace 1.16, written by Peter Selinger 2001-2019
</metadata>
<g transform="translate(0.000000,96.000000) scale(0.100000,-0.100000)"
fill="#000000" stroke="none">
<path d="M222 869 c-70 -35 -105 -71 -140 -147 -20 -45 -24 -65 -20 -130 3
-67 9 -89 50 -172 25 -52 86 -155 134 -227 117 -176 111 -176 228 -1 48 73
109 176 134 228 41 83 47 105 50 172 4 65 0 85 -20 130 -35 76 -70 112 -140
147 -52 27 -72 31 -138 31 -66 0 -86 -4 -138 -31z m237 -58 c20 -11 53 -37 73
-59 75 -83 77 -171 6 -309 -50 -99 -166 -283 -178 -283 -12 0 -128 184 -179
283 -56 112 -66 189 -32 256 24 45 65 87 114 113 45 24 147 24 196 -1z"/>
<path d="M733 759 l-21 -22 49 -63 c27 -35 49 -68 49 -74 0 -6 -22 -39 -50
-74 l-49 -63 22 -22 c13 -11 27 -21 33 -20 11 1 134 164 134 179 0 16 -123
179 -135 179 -6 1 -20 -9 -32 -20z"/>
</g>
</svg>
