<svg xmlns="http://www.w3.org/2000/svg" width="24" height="24" viewBox="0 0 24 24">
  <g id="settings" transform="translate(-150 -2804)">
    <rect id="Rectangle_14032" data-name="Rectangle 14032" width="24" height="24" transform="translate(150 2804)" fill="none"/>
    <path id="Path_68486" data-name="Path 68486" d="M432.989,399.345a4,4,0,1,1,4-4A4,4,0,0,1,432.989,399.345Zm0-6a2,2,0,1,0,2,2A2,2,0,0,0,432.989,393.345Z" transform="translate(-270.989 2420.655)" fill="#5e6567"/>
    <path id="Path_68487" data-name="Path 68487" d="M433.069,407.345a3,3,0,0,1-3-3,.67.67,0,0,0-.425-.661.68.68,0,0,0-.776.106,3.039,3.039,0,0,1-4.3.052,3,3,0,0,1,0-4.244.706.706,0,0,0,.236-.52.664.664,0,0,0-.658-.653h-.161a3,3,0,0,1,0-6,.669.669,0,0,0,.661-.425.677.677,0,0,0-.106-.775,3,3,0,1,1,4.192-4.3.675.675,0,0,0,.769.182,1.156,1.156,0,0,1,.2-.064.647.647,0,0,0,.285-.535v-.166a3,3,0,0,1,6,0,.685.685,0,0,0,.663.739h.006a.66.66,0,0,0,.456-.187,3,3,0,1,1,4.292,4.2.676.676,0,0,0-.181.769.991.991,0,0,1,.063.2.65.65,0,0,0,.535.284h.166a3,3,0,0,1,0,6,.688.688,0,0,0-.68.394l0,.01a.644.644,0,0,0,.129.717,3.021,3.021,0,0,1,.052,4.3,3.072,3.072,0,0,1-4.244,0,.679.679,0,0,0-.985-.033.659.659,0,0,0-.188.456v.16A3,3,0,0,1,433.069,407.345Zm-3.733-5.74a2.775,2.775,0,0,1,2.733,2.627v.113a1,1,0,0,0,2,0v-.17a2.664,2.664,0,0,1,4.516-1.9l.074.075a1.026,1.026,0,0,0,1.413,0,1,1,0,0,0,0-1.416,2.664,2.664,0,0,1,1.823-4.587,1.025,1.025,0,0,0,1.094-1,1,1,0,0,0-1-1h-.17a2.648,2.648,0,0,1-2.428-1.606.972.972,0,0,1-.073-.263,2.636,2.636,0,0,1,.607-2.73,1.028,1.028,0,0,0,.067-1.484,1,1,0,0,0-1.416,0l-.071.071a2.651,2.651,0,0,1-1.829.751h-.023a2.666,2.666,0,0,1-2.664-2.64,1.027,1.027,0,0,0-1-1.1,1,1,0,0,0-1,1v.17a2.652,2.652,0,0,1-1.605,2.429,1.026,1.026,0,0,1-.264.073,2.641,2.641,0,0,1-2.73-.607,1.027,1.027,0,0,0-1.484-.068,1,1,0,0,0,0,1.416,2.674,2.674,0,0,1,.6,2.991,2.609,2.609,0,0,1-2.4,1.676h-.114a1,1,0,0,0,0,2h.17a2.662,2.662,0,0,1,1.9,4.516,1,1,0,1,0,1.345,1.487A2.759,2.759,0,0,1,429.336,401.605Zm11.054-3.26h0Z" transform="translate(-270.989 2420.655)" fill="#5e6567"/>
  </g>
</svg>
