<?xml version="1.0" standalone="no"?>
<!DOCTYPE svg PUBLIC "-//W3C//DTD SVG 20010904//EN"
 "http://www.w3.org/TR/2001/REC-SVG-20010904/DTD/svg10.dtd">
<svg version="1.0" xmlns="http://www.w3.org/2000/svg"
 width="96.000000pt" height="96.000000pt" viewBox="0 0 96.000000 96.000000"
 preserveAspectRatio="xMidYMid meet">
<metadata>
Created by potrace 1.16, written by Peter Selinger 2001-2019
</metadata>
<g transform="translate(0.000000,96.000000) scale(0.100000,-0.100000)"
fill="#000000" stroke="none">
<path d="M333 886 c-151 -49 -261 -184 -271 -333 l-5 -73 31 0 c28 0 32 4 37
38 14 85 18 99 43 146 34 63 100 120 171 147 106 40 261 10 328 -63 16 -18 15
-20 -17 -53 l-34 -35 112 0 112 0 0 112 0 112 -53 -52 -53 -52 -24 25 c-13 14
-53 40 -89 58 -55 27 -76 32 -155 34 -57 2 -107 -2 -133 -11z"/>
<path d="M776 518 c-3 -13 -6 -37 -6 -54 0 -17 -14 -58 -30 -92 -83 -166 -274
-231 -436 -149 -27 14 -58 34 -68 46 -19 21 -19 22 14 56 l34 35 -112 0 -112
0 0 -112 0 -112 48 47 c26 26 52 47 58 47 6 0 21 -11 33 -24 13 -14 49 -37 80
-53 51 -25 66 -28 166 -28 103 0 114 2 175 31 125 60 211 184 218 316 l4 68
-30 0 c-22 0 -31 -6 -36 -22z"/>
</g>
</svg>
